// Jest Snapshot v1, https://goo.gl/fbAQLP

exports[`ItemImage renders an item correctly 1`] = `
<DocumentFragment>
  <div
    class="ItemImage"
  >
    <div
      class="icon"
      style="width: 64px; height: 64px; margin: 0px;"
    />
    <div
      class="quantity"
    />
  </div>
</DocumentFragment>
`;

exports[`ItemImage renders empty correctly 1`] = `
<DocumentFragment>
  <div
    class="ItemImage empty"
  >
    <div
      class="icon"
    />
    <div
      class="quantity"
    />
  </div>
</DocumentFragment>
`;

exports[`ItemImage renders empty with a slot correctly 1`] = `
<DocumentFragment>
  <div
    class="ItemImage show-default-icon"
    slot="head"
  >
    <div
      class="icon"
    />
    <div
      class="quantity"
    />
  </div>
</DocumentFragment>
`;
